…
```r
nhanes_srs <- nhanes_final %>% sample_n(2500)
```

Create nhanes_stratified with group_by() and sample_n()

```r
nhanes_stratified <- nhanes_final %>% group_by(RIDAGEYR) %>% sample_n(2000, replace = TRUE)

nhanes_stratified %>% 
  count(RIDAGEYR)
```

```
## # A tibble: 64 x 2
## # Groups:   RIDAGEYR [64]
##    RIDAGEYR     n
##       <dbl> <int>
##  1       17  2000
##  2       18  2000
##  3       19  2000
##  4       20  2000
##  5       21  2000
##  6       22  2000
##  7       23  2000
##  8       24  2000
##  9       25  2000
## 10       26  2000
## # … with 54 more rows
```
…
Examine scores by Borough in both datasets, before and after imputation:

```r
sat_scores %>% 
  group_by(District) %>% 
  summarize(median = median(Test.takers..2012, na.rm = TRUE), 
            mean = mean(Test.takers..2012, na.rm = TRUE))
```

```
## # A tibble: 129 x 3
##    District                 median  mean
##    <chr>                     <dbl> <dbl>
##  1 Amistad Academy District     34    34
##  2 Ansonia                     118   118
##  3 Avon                        254   254
##  4 Berlin                      216   216
##  5 Bethel                      200   200
##  6 Bloomfield                   65    65
##  7 Bolton                       62    62
##  8 Branford                    196   196
##  9 Bridgeport                  155   202
## 10 Bristol                     211   211
## # … with 119 more rows
```

```r
sat_scores_2 %>% 
  group_by(District) %>% 
  summarize(median = median(Test.takers..2012), 
            mean = mean(Test.takers..2012))
```

```
## # A tibble: 129 x 3
##    District                 median  mean
##    <chr>                     <dbl> <dbl>
##  1 Amistad Academy District     34    34
##  2 Ansonia                     118   118
##  3 Avon                        254   254
##  4 Berlin                      216   216
##  5 Bethel                      200   200
##  6 Bloomfield                   65    65
##  7 Bolton                       62    62
##  8 Branford                    196   196
##  9 Bridgeport                  155   202
## 10 Bristol                     211   211
## # … with 119 more rows
```
…
```r
starwars %>%
  group_by(birth_year) %>%
  miss_var_summary()
```

```
## # A tibble: 481 x 4
## # Groups:   birth_year [37]
##    birth_year variable   n_miss pct_miss
##         <dbl> <chr>       <int>    <dbl>
##  1         19 name            0        0
##  2         19 height          0        0
##  3         19 mass            0        0
##  4         19 hair_color      0        0
##  5         19 skin_color      0        0
##  6         19 eye_color       0        0
##  7         19 sex             0        0
##  8         19 gender          0        0
##  9         19 homeworld       0        0
## 10         19 species         0        0
## # … with 471 more rows
```
…
Other summaries of missingness
Calculate the summaries for each span of missingness

For each `birth_year` variable, calculate the run of missingness:


```r
starwars %>%
  miss_var_run(var = birth_year)
```

```
## # A tibble: 27 x 2
##    run_length is_na   
##         <int> <chr>   
##  1          7 complete
##  2          1 missing 
##  3          9 complete
##  4          1 missing 
##  5          9 complete
##  6          1 missing 
##  7          1 complete
##  8          1 missing 
##  9          1 complete
## 10          1 missing 
## # … with 17 more rows
```

```r
# For each `birth_year` variable, calculate the run of missingness every 2 years
starwars %>%
  miss_var_span(var = birth_year, span_every = 2)
```

```
## # A tibble: 44 x 5
##    span_counter n_miss n_complete prop_miss prop_complete
##           <int>  <int>      <dbl>     <dbl>         <dbl>
##  1            1      0          2       0             1  
##  2            2      0          2       0             1  
##  3            3      0          2       0             1  
##  4            4      1          1       0.5           0.5
##  5            5      0          2       0             1  
##  6            6      0          2       0             1  
##  7            7      0          2       0             1  
##  8            8      0          2       0             1  
##  9            9      1          1       0.5           0.5
## 10           10      0          2       0             1  
## # … with 34 more rows
```
…
Print the frogger data to have a look at it
starwars

Use `complete()` on the `time` variable to make implicit missing values explicit


```r
starwars_tidy <- starwars %>% complete(name, hair_color)

# Use `fill()` to fill down the name variable in the starwars dataset
starwars %>% fill(name)
```

```
## # A tibble: 87 x 14
##    name  height  mass hair_color skin_color eye_color birth_year sex   gender
##    <chr>  <int> <dbl> <chr>      <chr>      <chr>          <dbl> <chr> <chr> 
##  1 Luke…    172    77 blond      fair       blue            19   male  mascu…
##  2 C-3PO    167    75 <NA>       gold       yellow         112   none  mascu…
##  3 R2-D2     96    32 <NA>       white, bl… red             33   none  mascu…
##  4 Dart…    202   136 none       white      yellow          41.9 male  mascu…
##  5 Leia…    150    49 brown      light      brown           19   fema… femin…
##  6 Owen…    178   120 brown, gr… light      blue            52   male  mascu…
##  7 Beru…    165    75 brown      light      blue            47   fema… femin…
##  8 R5-D4     97    32 <NA>       white, red red             NA   none  mascu…
##  9 Bigg…    183    84 black      light      brown           24   male  mascu…
## 10 Obi-…    182    77 auburn, w… fair       blue-gray       57   male  mascu…
## # … with 77 more rows, and 5 more variables: homeworld <chr>, species <chr>,
## #   films <list>, vehicles <list>, starships <list>
```

```r
# Correctly fill() and complete() missing values so that our dataset becomes sensible
starwars %>%
  fill(name) %>%
  complete(name, hair_color)
```

```
## # A tibble: 1,131 x 14
##    name  hair_color height  mass skin_color eye_color birth_year sex   gender
##    <chr> <chr>       <int> <dbl> <chr>      <chr>          <dbl> <chr> <chr> 
##  1 Ackb… auburn         NA    NA <NA>       <NA>              NA <NA>  <NA>  
##  2 Ackb… auburn, g…     NA    NA <NA>       <NA>              NA <NA>  <NA>  
##  3 Ackb… auburn, w…     NA    NA <NA>       <NA>              NA <NA>  <NA>  
##  4 Ackb… black          NA    NA <NA>       <NA>              NA <NA>  <NA>  
##  5 Ackb… blond          NA    NA <NA>       <NA>              NA <NA>  <NA>  
##  6 Ackb… blonde         NA    NA <NA>       <NA>              NA <NA>  <NA>  
##  7 Ackb… brown          NA    NA <NA>       <NA>              NA <NA>  <NA>  
##  8 Ackb… brown, gr…     NA    NA <NA>       <NA>              NA <NA>  <NA>  
##  9 Ackb… grey           NA    NA <NA>       <NA>              NA <NA>  <NA>  
## 10 Ackb… none          180    83 brown mot… orange            41 male  mascu…
## # … with 1,121 more rows, and 5 more variables: homeworld <chr>, species <chr>,
## #   films <list>, vehicles <list>, starships <list>
```
…
<img src="code4stem_files/figure-html/fill in blanks-1.png" width="672" />

```r
# Impute and track data with `bind_shadow`, `impute_below`, and `add_label_shadow`
airquality_imp_track <- bind_shadow(airquality) %>% 
  impute_below_all() %>%
  add_label_shadow()

# Look at the imputed values
airquality_imp_track
```

```
## # A tibble: 153 x 13
##    Ozone Solar.R  Wind  Temp Month   Day Ozone_NA Solar.R_NA Wind_NA Temp_NA
##    <dbl>   <dbl> <dbl> <int> <int> <int> <fct>    <fct>      <fct>   <fct>  
##  1  41     190     7.4    67     5     1 !NA      !NA        !NA     !NA    
##  2  36     118     8      72     5     2 !NA      !NA        !NA     !NA    
##  3  12     149    12.6    74     5     3 !NA      !NA        !NA     !NA    
##  4  18     313    11.5    62     5     4 !NA      !NA        !NA     !NA    
##  5 -15.4   -25.1  14.3    56     5     5 NA       NA         !NA     !NA    
##  6  28     -26.7  14.9    66     5     6 !NA      NA         !NA     !NA    
##  7  23     299     8.6    65     5     7 !NA      !NA        !NA     !NA    
##  8  19      99    13.8    59     5     8 !NA      !NA        !NA     !NA    
##  9   8      19    20.1    61     5     9 !NA      !NA        !NA     !NA    
## 10 -14.2   194     8.6    69     5    10 NA       !NA        !NA     !NA    
## # … with 143 more rows, and 3 more variables: Month_NA <fct>, Day_NA <fct>,
## #   any_missing <chr>
```
…
<img src="code4stem_files/figure-html/impute-4.png" width="672" />

```r
# Gather the imputed data 
airquality_imp_mean_gather <- shadow_long(airquality_imp_mean,
                                     Temp,
                                     Wind)
# Inspect the data
airquality_imp_mean_gather
```

```
## # A tibble: 306 x 4
##    variable value variable_NA value_NA
##    <chr>    <chr> <chr>       <chr>   
##  1 Wind     7.4   Wind_NA     !NA     
##  2 Wind     8     Wind_NA     !NA     
##  3 Wind     12.6  Wind_NA     !NA     
##  4 Wind     11.5  Wind_NA     !NA     
##  5 Wind     14.3  Wind_NA     !NA     
##  6 Wind     14.9  Wind_NA     !NA     
##  7 Wind     8.6   Wind_NA     !NA     
##  8 Wind     13.8  Wind_NA     !NA     
##  9 Wind     20.1  Wind_NA     !NA     
## 10 Wind     8.6   Wind_NA     !NA     
## # … with 296 more rows
```
…
