Chapter 6 Tests for experiments | Codes for STEM
…
## [1] "anova"      "data.frame"

Use aov() to build purpose_aov:

# Analysis of variance
purpose_aov <- aov(sales ~ city_recode, data = tx_housing)

Conduct Tukey’s HSD test to create tukey_output:

tukey_output <- TukeyHSD(purpose_aov, "city_recode", conf.level = 0.95)

# Tidy tukey_output to make sense of the results
tidy(tukey_output)

## # A tibble: 990 x 7
##    term     contrast          null.value estimate conf.low conf.high adj.p.value
##    <chr>    <chr>                  <dbl>    <dbl>    <dbl>     <dbl>       <dbl>
##  1 city_re… Amarillo-Abilene           0     87.7    -42.3     218.     8.41e- 1
##  2 city_re… Arlington-Abilene          0    272.     143.      402.     8.51e-12
##  3 city_re… Austin-Abilene             0   1846.    1717.     1975.     7.92e-12
##  4 city_re… Beaumont-Abilene           0     26.6   -102.      156.     1.00e+ 0
##  5 city_re… Brazoria County-…          0    -62.4   -205.       80.4    1.00e+ 0
##  6 city_re… Brownsville-Abil…          0    -93.0   -258.       72.2    9.86e- 1
##  7 city_re… Bryan-College St…          0     36.3    -92.8     165.     1.00e+ 0
##  8 city_re… California-Abile…          0    339.     226.      452.     7.92e-12
##  9 city_re… Collin County-Ab…          0    932.     803.     1061.     7.92e-12
## 10 city_re… Corpus Christi-A…          0    194.      64.1     325.     4.00e- 6
## # … with 980 more rows
…
summary(tx_housing$sales)

##    Min. 1st Qu.  Median    Mean 3rd Qu.    Max. 
##       6      95     187     603     527    8945

Examine sales by volume:

tx_housing %>% 
  group_by(volume) %>% 
  summarize(mean = mean(sales), var = var(sales), median = median(sales))

## # A tibble: 6,855 x 4
##     volume  mean   var median
##      <dbl> <dbl> <dbl>  <dbl>
##  1  835000    14    NA     14
##  2 1018825    14    NA     14
##  3 1110000     9    NA      9
##  4 1156999     6    NA      6
##  5 1165000    18    NA     18
##  6 1215000    11    NA     11
##  7 1260000    23    NA     23
##  8 1305000    16    NA     16
##  9 1419500    25    NA     25
## 10 1434950    22    NA     22
## # … with 6,845 more rows
…
Resampling NHANES data:
Use sample_n() to create nhanes_srs:

nhanes_srs <- nhanes_final %>% sample_n(2500)

Create nhanes_stratified with group_by() and sample_n()

nhanes_stratified <- nhanes_final %>% group_by(RIDAGEYR) %>% sample_n(2000, replace = TRUE)

nhanes_stratified %>% 
  count(RIDAGEYR)

## # A tibble: 64 x 2
## # Groups:   RIDAGEYR [64]
##    RIDAGEYR     n
##       <dbl> <int>
##  1       17  2000
##  2       18  2000
##  3       19  2000
##  4       20  2000
##  5       21  2000
##  6       22  2000
##  7       23  2000
##  8       24  2000
##  9       25  2000
## 10       26  2000
## # … with 54 more rows
…
##              Df Sum Sq Mean Sq F value  Pr(>F)   
## MCQ035        1   1399  1398.5   8.242 0.00419 **
## RIDAGEYR      1    312   312.4   1.841 0.17519   
## Residuals   903 153221   169.7                   
## ---
## Signif. codes:  0 '***' 0.001 '**' 0.01 '*' 0.05 '.' 0.1 ' ' 1
## 4981 observations deleted due to missingness

Print mean weights by mcq365d and riagendr:

nhanes_final %>% 
  group_by(MCQ035, RIDAGEYR) %>% 
  summarize(mean_ind = mean(INDHHIN2, na.rm = TRUE))

## # A tibble: 204 x 3
## # Groups:   MCQ035 [4]
##    MCQ035 RIDAGEYR mean_ind
##     <dbl>    <dbl>    <dbl>
##  1      1       17    10.3 
##  2      1       18     8   
##  3      1       19     5.38
##  4      1       20     8   
##  5      1       21     8.75
##  6      1       22     6.27
##  7      1       23     7.18
##  8      1       24    14   
##  9      1       25     9.11
## 10      1       26    10.6 
## # … with 194 more rows
…
Impute the Math score by Borough:

sat_scores_2 <- simputation::impute_median(sat_scores, Test.takers..2012 ~ District)
#Convert Math score to numeric
sat_scores$Average_testtakers2012 <- as.numeric(sat_scores$Test.takers..2012)

Examine scores by Borough in both datasets, before and after imputation:

sat_scores %>% 
  group_by(District) %>% 
  summarize(median = median(Test.takers..2012, na.rm = TRUE), 
            mean = mean(Test.takers..2012, na.rm = TRUE))

## # A tibble: 129 x 3
##    District                 median  mean
##    <chr>                     <dbl> <dbl>
##  1 Amistad Academy District     34    34
##  2 Ansonia                     118   118
##  3 Avon                        254   254
##  4 Berlin                      216   216
##  5 Bethel                      200   200
##  6 Bloomfield                   65    65
##  7 Bolton                       62    62
##  8 Branford                    196   196
##  9 Bridgeport                  155   202
## 10 Bristol                     211   211
## # … with 119 more rows

sat_scores_2 %>% 
  group_by(District) %>% 
  summarize(median = median(Test.takers..2012), 
            mean = mean(Test.takers..2012))

## # A tibble: 129 x 3
##    District                 median  mean
##    <chr>                     <dbl> <dbl>
##  1 Amistad Academy District     34    34
##  2 Ansonia                     118   118
##  3 Avon                        254   254
##  4 Berlin                      216   216
##  5 Bethel                      200   200
##  6 Bloomfield                   65    65
##  7 Bolton                       62    62
##  8 Branford                    196   196
##  9 Bridgeport                  155   202
## 10 Bristol                     211   211
## # … with 119 more rows
…
