Health Characteristics across Canada
…
# make a summary of data in a new table 
get_cansim("13-10-0096-01") %>%
  clean_names() %>%
  skim() %>%
  as.tibble()

## Warning: `as.tibble()` is deprecated, use `as_tibble()` (but mind the new semantics).
## This warning is displayed once per session.

## # A tibble: 193 x 6
##    variable type      stat     level  value formatted
##    <chr>    <chr>     <chr>    <chr>  <dbl> <chr>    
##  1 ref_date character missing  .all       0 0        
##  2 ref_date character complete .all  148815 148815   
##  3 ref_date character n        .all  148815 148815   
##  4 ref_date character min      .all       4 4        
##  5 ref_date character max      .all       4 4        
##  6 ref_date character empty    .all       0 0        
##  7 ref_date character n_unique .all       4 4        
##  8 geo      character missing  .all       0 0        
##  9 geo      character complete .all  148815 148815   
## 10 geo      character n        .all  148815 148815   
## #  with 183 more rows
…
## [1] TRUE

n_miss(health_data)

## [1] 1049800

prop_miss(health_data)

## [1] 0.2612739

# summarizing missingness
health_data %>%
  miss_var_summary()

## # A tibble: 27 x 3
##    variable                                n_miss pct_miss
##    <chr>                                    <int>    <dbl>
##  1 symbol                                  148815   100   
##  2 terminated                              148815   100   
##  3 classification_code_for_age_group       148815   100   
##  4 classification_code_for_sex             148815   100   
##  5 classification_code_for_indicators      148815   100   
##  6 classification_code_for_characteristics 148815   100   
##  7 status                                  109278    73.4 
##  8 value                                    23782    16.0 
##  9 dguid                                    11925     8.01
## 10 geo_uid                                  11925     8.01
## #  with 17 more rows
…
